<svg width="20" height="20" viewBox="0 0 20 20" fill="none" xmlns="http://www.w3.org/2000/svg">
<path fill-rule="evenodd" clip-rule="evenodd" d="M10 20C4.48 20 0 15.52 0 10C0 4.48 4.48 0 10 0C15.52 0 20 4.48 20 10C20 15.52 15.52 20 10 20ZM15 6C14.72 6 14.47 6.11 14.29 6.29L8 12.59L5.71 10.29C5.53 10.11 5.28 10 5 10C4.45 10 4 10.45 4 11C4 11.28 4.11 11.53 4.29 11.71L7.29 14.71C7.47 14.89 7.72 15 8 15C8.28 15 8.53 14.89 8.71 14.71L15.71 7.71C15.89 7.53 16 7.28 16 7C16 6.45 15.55 6 15 6Z" fill="#3DCC91"/>
</svg>
